﻿Shaheen;Boyanov;2073
Asmaa;Kleid;4053
Rini;Sauer;1690
Sophronios;Okeke;3343
Mahir;Krejči;675
Marcelle;Gaspar;3570
Cynefrith;Lagorio;2022
Gwen;Viktorov;1240
Carolyn;Jansink;1477
Lynsey;Christison;3327
Elena;Kóbor;1114
Birusk;Perry;3106
Fólki;Nieminen;3741
Monika;Bologna;1684
Kamilla;Takahashi;4156
Bronagh;Zavala;2304
Sarala;Krikorian;2017
Temir;Arrighetti;836
Itamar;Parsamyan;4738
Hasan;Salcedo;725
